{
    "title": "SIG31 BDD relationelle & spatiale",
	"author": "équipe Formateurs & Référents SIG",
	"description": "support de formation SIG perfectionnement 3.1 Base de Données Relationelle & Spatiale",
	"license": "CC BY-NC-SA 3.0 FR",
	"language": "fr",
	"repo": "https://gitlab.com/formationsig/sig31",
    "structure": {
        "readme": "README.md"
    },
    "plugins": [
		"advanced-emoji",
		"copy-code-button",
		"get-book",
		"embed-pdf",
		"local-pagefooter",
		"page-toc",
        "-lunr", "-search", "search-plus",
        "hints",
        "livereload"        
    ],
    "pluginsConfig": {
		"get-book": {
			"url": "https://gitlab.com/formationsig/sig31/-/jobs/artifacts/master/raw/public/sig31.pdf?job=pages",
			"label": "Télécharger le PDF"
		},
		"page-toc": {
			"selector": ".markdown-section h1, .markdown-section h2, .markdown-section h3, .markdown-section h4",
            "position": "before-first",
			"showByDefault": true
		}, 
		"local-pagefooter": {
			"islocal": true,
			"modify_label": "Inrap - équipe Formateurs & Référents SIG - document généré le ",
			"modify_format": "DD-MM-YYYY HH:mm:ss"
		}
    },
	"links": {
        "sidebar": {
            "Accueil - Formations SIG": "https://formationsig.gitlab.io/toc/"
        },
		"sharing": {
            "all": ["twitter", "facebook"],
            "facebook": false,
            "google": false,
            "twitter": false
		}
	},
	"pdf": {
        "margin": {
            "left": 56,
            "right": 56,
            "top": 56,
            "bottom": 56
        },
        "pageNumbers": true,
        "fontSize": 11,
        "fontFamily": "Roboto",
        "paperSize": "a4",
		"toc": true
    }
}
